Id,Credit Default
0,1
1,0
2,1
3,0
4,0
5,0
6,0
7,0
8,1
9,0
10,0
11,1
12,1
13,0
14,0
15,0
16,1
17,0
18,0
19,0
20,0
21,1
22,0
23,0
24,0
25,0
26,1
27,0
28,1
29,0
30,0
31,0
32,0
33,0
34,0
35,0
36,0
37,0
38,1
39,1
40,1
41,1
42,1
43,0
44,1
45,0
46,1
47,1
48,0
49,1
50,0
51,0
52,0
53,1
54,1
55,0
56,1
57,0
58,1
59,0
60,0
61,0
62,0
63,1
64,1
65,0
66,0
67,0
68,0
69,0
70,0
71,0
72,0
73,0
74,1
75,0
76,1
77,0
78,0
79,0
80,0
81,0
82,0
83,1
84,0
85,0
86,1
87,1
88,0
89,1
90,0
91,0
92,1
93,1
94,0
95,1
96,0
97,0
98,0
99,0
100,1
101,1
102,0
103,0
104,1
105,0
106,1
107,1
108,1
109,1
110,0
111,1
112,1
113,0
114,0
115,1
116,1
117,1
118,0
119,0
120,0
121,0
122,0
123,0
124,1
125,0
126,1
127,0
128,0
129,0
130,0
131,1
132,1
133,0
134,1
135,0
136,0
137,0
138,0
139,1
140,1
141,1
142,1
143,0
144,1
145,0
146,1
147,0
148,0
149,1
150,0
151,0
152,1
153,1
154,1
155,0
156,0
157,1
158,0
159,1
160,0
161,0
162,0
163,0
164,1
165,1
166,0
167,0
168,0
169,0
170,1
171,0
172,0
173,1
174,1
175,0
176,0
177,1
178,0
179,0
180,0
181,0
182,0
183,0
184,0
185,0
186,0
187,0
188,0
189,1
190,0
191,0
192,0
193,0
194,0
195,0
196,0
197,0
198,0
199,0
200,0
201,0
202,0
203,0
204,1
205,1
206,0
207,1
208,1
209,0
210,0
211,0
212,1
213,1
214,0
215,1
216,1
217,0
218,0
219,1
220,0
221,1
222,0
223,0
224,1
225,0
226,1
227,1
228,0
229,0
230,1
231,0
232,0
233,0
234,0
235,0
236,1
237,0
238,0
239,0
240,1
241,0
242,1
243,0
244,0
245,0
246,1
247,0
248,1
249,0
250,0
251,0
252,0
253,0
254,1
255,1
256,0
257,0
258,0
259,0
260,0
261,1
262,0
263,1
264,0
265,1
266,0
267,1
268,0
269,0
270,0
271,1
272,0
273,1
274,0
275,0
276,0
277,0
278,0
279,0
280,1
281,0
282,0
283,1
284,1
285,0
286,0
287,0
288,0
289,0
290,0
291,0
292,1
293,0
294,0
295,1
296,1
297,1
298,0
299,0
300,0
301,0
302,1
303,0
304,0
305,1
306,0
307,1
308,0
309,0
310,0
311,0
312,0
313,0
314,0
315,1
316,0
317,0
318,0
319,1
320,0
321,0
322,1
323,0
324,0
325,0
326,1
327,1
328,0
329,1
330,0
331,0
332,0
333,0
334,0
335,0
336,0
337,1
338,0
339,0
340,1
341,0
342,0
343,0
344,0
345,1
346,0
347,1
348,1
349,0
350,0
351,1
352,0
353,0
354,0
355,0
356,0
357,1
358,1
359,1
360,0
361,0
362,0
363,1
364,0
365,0
366,1
367,0
368,0
369,0
370,0
371,0
372,1
373,0
374,0
375,0
376,0
377,0
378,0
379,1
380,1
381,1
382,0
383,0
384,0
385,0
386,0
387,0
388,0
389,1
390,0
391,0
392,1
393,0
394,1
395,0
396,0
397,1
398,1
399,0
400,0
401,1
402,0
403,0
404,0
405,0
406,0
407,0
408,1
409,0
410,0
411,0
412,1
413,1
414,0
415,0
416,0
417,0
418,0
419,0
420,0
421,0
422,0
423,0
424,0
425,0
426,0
427,1
428,0
429,1
430,1
431,0
432,0
433,0
434,0
435,0
436,0
437,1
438,0
439,0
440,1
441,1
442,1
443,0
444,1
445,0
446,0
447,1
448,1
449,0
450,0
451,0
452,1
453,0
454,0
455,1
456,0
457,0
458,1
459,0
460,0
461,1
462,0
463,1
464,0
465,0
466,0
467,0
468,1
469,1
470,1
471,0
472,1
473,0
474,1
475,0
476,1
477,1
478,0
479,0
480,0
481,0
482,1
483,0
484,0
485,0
486,0
487,1
488,0
489,0
490,1
491,1
492,1
493,1
494,1
495,1
496,0
497,0
498,0
499,0
500,0
501,0
502,1
503,1
504,0
505,0
506,0
507,1
508,0
509,1
510,1
511,1
512,0
513,1
514,1
515,1
516,1
517,0
518,1
519,0
520,0
521,1
522,0
523,1
524,0
525,1
526,0
527,0
528,1
529,1
530,0
531,1
532,1
533,0
534,0
535,0
536,0
537,0
538,0
539,0
540,0
541,0
542,0
543,1
544,1
545,0
546,1
547,0
548,0
549,0
550,0
551,0
552,0
553,0
554,1
555,0
556,0
557,1
558,0
559,1
560,1
561,0
562,1
563,0
564,1
565,0
566,0
567,0
568,1
569,0
570,1
571,1
572,1
573,1
574,1
575,0
576,0
577,0
578,0
579,0
580,1
581,0
582,0
583,0
584,0
585,1
586,1
587,0
588,0
589,1
590,0
591,1
592,1
593,0
594,1
595,1
596,0
597,0
598,1
599,0
600,1
601,0
602,0
603,0
604,0
605,1
606,0
607,0
608,0
609,0
610,1
611,1
612,0
613,0
614,0
615,0
616,0
617,1
618,1
619,0
620,0
621,0
622,0
623,1
624,0
625,0
626,1
627,1
628,1
629,0
630,1
631,0
632,0
633,1
634,1
635,0
636,1
637,0
638,1
639,0
640,0
641,1
642,0
643,0
644,1
645,1
646,0
647,0
648,0
649,1
650,1
651,0
652,0
653,0
654,0
655,0
656,0
657,1
658,1
659,1
660,0
661,0
662,0
663,1
664,1
665,1
666,1
667,1
668,0
669,0
670,1
671,0
672,1
673,0
674,0
675,0
676,0
677,0
678,0
679,0
680,1
681,1
682,0
683,0
684,1
685,0
686,0
687,0
688,1
689,0
690,1
691,0
692,1
693,1
694,0
695,0
696,1
697,0
698,1
699,0
700,0
701,1
702,0
703,1
704,1
705,0
706,1
707,0
708,0
709,0
710,0
711,1
712,1
713,1
714,1
715,0
716,0
717,1
718,0
719,0
720,1
721,0
722,0
723,1
724,0
725,1
726,1
727,1
728,0
729,0
730,1
731,1
732,0
733,0
734,1
735,0
736,1
737,0
738,0
739,1
740,0
741,0
742,0
743,1
744,1
745,0
746,1
747,0
748,1
749,0
750,1
751,0
752,0
753,1
754,0
755,0
756,0
757,1
758,1
759,1
760,0
761,0
762,1
763,0
764,1
765,0
766,0
767,1
768,0
769,0
770,0
771,0
772,0
773,0
774,0
775,0
776,0
777,0
778,0
779,0
780,0
781,0
782,0
783,1
784,0
785,1
786,1
787,1
788,1
789,0
790,0
791,0
792,0
793,0
794,0
795,1
796,0
797,0
798,0
799,0
800,0
801,0
802,1
803,1
804,0
805,1
806,0
807,0
808,0
809,0
810,0
811,0
812,0
813,1
814,0
815,1
816,0
817,0
818,1
819,0
820,1
821,0
822,1
823,0
824,1
825,0
826,0
827,0
828,0
829,0
830,0
831,1
832,0
833,0
834,0
835,0
836,0
837,0
838,0
839,0
840,0
841,1
842,0
843,1
844,0
845,1
846,0
847,0
848,1
849,0
850,1
851,1
852,0
853,0
854,0
855,1
856,1
857,0
858,0
859,1
860,1
861,0
862,0
863,0
864,0
865,0
866,0
867,1
868,0
869,0
870,1
871,1
872,0
873,1
874,0
875,1
876,0
877,0
878,1
879,0
880,0
881,1
882,0
883,0
884,0
885,1
886,1
887,0
888,0
889,1
890,0
891,0
892,1
893,0
894,0
895,0
896,0
897,0
898,0
899,0
900,0
901,1
902,0
903,0
904,0
905,0
906,1
907,0
908,0
909,1
910,0
911,1
912,0
913,0
914,1
915,0
916,0
917,0
918,1
919,1
920,1
921,1
922,0
923,0
924,1
925,0
926,1
927,0
928,0
929,1
930,0
931,1
932,0
933,0
934,0
935,1
936,0
937,0
938,1
939,1
940,1
941,1
942,1
943,1
944,0
945,1
946,0
947,1
948,0
949,0
950,0
951,1
952,0
953,1
954,0
955,0
956,0
957,0
958,1
959,0
960,0
961,1
962,1
963,0
964,1
965,1
966,0
967,0
968,0
969,0
970,0
971,1
972,0
973,1
974,1
975,0
976,0
977,1
978,0
979,1
980,1
981,0
982,0
983,1
984,1
985,0
986,0
987,1
988,0
989,0
990,1
991,1
992,0
993,0
994,0
995,1
996,0
997,0
998,0
999,1
1000,1
1001,0
1002,0
1003,0
1004,0
1005,0
1006,0
1007,0
1008,0
1009,0
1010,0
1011,1
1012,1
1013,0
1014,0
1015,0
1016,1
1017,1
1018,1
1019,0
1020,1
1021,1
1022,0
1023,0
1024,0
1025,0
1026,0
1027,1
1028,1
1029,0
1030,0
1031,1
1032,1
1033,0
1034,1
1035,0
1036,0
1037,1
1038,1
1039,1
1040,0
1041,0
1042,0
1043,0
1044,0
1045,0
1046,0
1047,0
1048,0
1049,0
1050,1
1051,0
1052,0
1053,1
1054,1
1055,0
1056,1
1057,1
1058,1
1059,1
1060,0
1061,0
1062,0
1063,0
1064,1
1065,1
1066,0
1067,0
1068,0
1069,1
1070,0
1071,1
1072,0
1073,1
1074,0
1075,1
1076,0
1077,1
1078,0
1079,1
1080,0
1081,1
1082,0
1083,1
1084,0
1085,1
1086,0
1087,0
1088,1
1089,0
1090,1
1091,0
1092,1
1093,0
1094,1
1095,1
1096,0
1097,0
1098,0
1099,1
1100,1
1101,1
1102,0
1103,0
1104,0
1105,0
1106,0
1107,1
1108,1
1109,0
1110,0
1111,0
1112,0
1113,1
1114,1
1115,0
1116,0
1117,0
1118,0
1119,1
1120,1
1121,0
1122,1
1123,0
1124,0
1125,0
1126,0
1127,1
1128,1
1129,0
1130,0
1131,0
1132,0
1133,0
1134,1
1135,0
1136,1
1137,0
1138,0
1139,0
1140,1
1141,0
1142,0
1143,0
1144,0
1145,1
1146,0
1147,0
1148,0
1149,0
1150,0
1151,0
1152,0
1153,0
1154,1
1155,0
1156,0
1157,1
1158,0
1159,0
1160,0
1161,0
1162,0
1163,1
1164,0
1165,0
1166,1
1167,0
1168,0
1169,0
1170,1
1171,1
1172,0
1173,0
1174,1
1175,0
1176,1
1177,1
1178,0
1179,0
1180,0
1181,0
1182,1
1183,0
1184,1
1185,1
1186,1
1187,0
1188,1
1189,1
1190,1
1191,0
1192,0
1193,0
1194,1
1195,1
1196,1
1197,1
1198,0
1199,1
1200,0
1201,1
1202,1
1203,1
1204,1
1205,0
1206,1
1207,0
1208,1
1209,1
1210,0
1211,0
1212,1
1213,0
1214,1
1215,1
1216,0
1217,1
1218,0
1219,1
1220,0
1221,1
1222,0
1223,0
1224,1
1225,0
1226,0
1227,1
1228,0
1229,0
1230,0
1231,0
1232,0
1233,1
1234,0
1235,0
1236,1
1237,0
1238,1
1239,1
1240,1
1241,1
1242,0
1243,0
1244,1
1245,0
1246,1
1247,1
1248,1
1249,0
1250,0
1251,0
1252,1
1253,1
1254,1
1255,1
1256,0
1257,0
1258,1
1259,0
1260,0
1261,1
1262,0
1263,0
1264,0
1265,0
1266,0
1267,1
1268,0
1269,0
1270,0
1271,0
1272,1
1273,0
1274,0
1275,0
1276,1
1277,0
1278,0
1279,1
1280,0
1281,1
1282,1
1283,1
1284,1
1285,1
1286,0
1287,0
1288,1
1289,1
1290,0
1291,1
1292,0
1293,0
1294,0
1295,0
1296,0
1297,0
1298,0
1299,0
1300,1
1301,0
1302,1
1303,0
1304,0
1305,0
1306,0
1307,0
1308,0
1309,0
1310,1
1311,1
1312,0
1313,0
1314,1
1315,0
1316,0
1317,1
1318,0
1319,0
1320,1
1321,1
1322,1
1323,0
1324,1
1325,0
1326,0
1327,1
1328,0
1329,1
1330,0
1331,1
1332,0
1333,0
1334,0
1335,1
1336,0
1337,0
1338,0
1339,1
1340,0
1341,0
1342,0
1343,0
1344,1
1345,1
1346,1
1347,1
1348,0
1349,1
1350,1
1351,1
1352,0
1353,1
1354,1
1355,1
1356,0
1357,1
1358,0
1359,0
1360,0
1361,0
1362,0
1363,1
1364,0
1365,1
1366,0
1367,0
1368,1
1369,0
1370,0
1371,0
1372,0
1373,0
1374,0
1375,0
1376,0
1377,0
1378,0
1379,1
1380,1
1381,0
1382,0
1383,0
1384,1
1385,0
1386,0
1387,0
1388,0
1389,0
1390,1
1391,0
1392,0
1393,1
1394,0
1395,1
1396,0
1397,0
1398,0
1399,1
1400,0
1401,1
1402,0
1403,1
1404,1
1405,0
1406,0
1407,0
1408,0
1409,0
1410,0
1411,1
1412,0
1413,0
1414,0
1415,0
1416,0
1417,0
1418,0
1419,0
1420,0
1421,0
1422,1
1423,0
1424,0
1425,1
1426,0
1427,0
1428,0
1429,0
1430,1
1431,1
1432,1
1433,0
1434,0
1435,0
1436,0
1437,1
1438,1
1439,0
1440,1
1441,1
1442,0
1443,0
1444,1
1445,0
1446,0
1447,1
1448,1
1449,0
1450,0
1451,0
1452,0
1453,0
1454,0
1455,0
1456,0
1457,0
1458,1
1459,1
1460,0
1461,1
1462,1
1463,0
1464,0
1465,0
1466,0
1467,1
1468,1
1469,1
1470,1
1471,1
1472,0
1473,0
1474,0
1475,0
1476,1
1477,0
1478,0
1479,0
1480,0
1481,1
1482,0
1483,0
1484,1
1485,0
1486,0
1487,1
1488,0
1489,0
1490,1
1491,0
1492,0
1493,0
1494,0
1495,0
1496,0
1497,0
1498,0
1499,1
1500,1
1501,1
1502,1
1503,0
1504,0
1505,0
1506,1
1507,0
1508,1
1509,0
1510,1
1511,0
1512,1
1513,1
1514,0
1515,1
1516,1
1517,0
1518,0
1519,0
1520,0
1521,1
1522,0
1523,0
1524,1
1525,0
1526,0
1527,1
1528,0
1529,0
1530,0
1531,0
1532,0
1533,0
1534,0
1535,1
1536,0
1537,1
1538,0
1539,1
1540,0
1541,0
1542,0
1543,1
1544,0
1545,0
1546,0
1547,1
1548,0
1549,1
1550,0
1551,0
1552,0
1553,0
1554,0
1555,0
1556,0
1557,1
1558,0
1559,0
1560,1
1561,1
1562,0
1563,1
1564,1
1565,0
1566,1
1567,0
1568,0
1569,0
1570,1
1571,0
1572,1
1573,1
1574,0
1575,1
1576,1
1577,0
1578,0
1579,1
1580,0
1581,0
1582,0
1583,1
1584,0
1585,1
1586,1
1587,0
1588,0
1589,1
1590,0
1591,1
1592,0
1593,1
1594,0
1595,0
1596,0
1597,0
1598,1
1599,0
1600,1
1601,0
1602,1
1603,1
1604,0
1605,0
1606,1
1607,0
1608,0
1609,0
1610,0
1611,0
1612,0
1613,1
1614,1
1615,1
1616,0
1617,0
1618,0
1619,0
1620,1
1621,0
1622,0
1623,0
1624,1
1625,0
1626,0
1627,1
1628,1
1629,1
1630,1
1631,1
1632,1
1633,1
1634,0
1635,1
1636,1
1637,1
1638,0
1639,1
1640,0
1641,1
1642,1
1643,0
1644,0
1645,0
1646,0
1647,0
1648,0
1649,0
1650,1
1651,1
1652,0
1653,0
1654,0
1655,1
1656,1
1657,0
1658,1
1659,0
1660,0
1661,0
1662,0
1663,0
1664,1
1665,1
1666,0
1667,0
1668,1
1669,1
1670,0
1671,0
1672,1
1673,1
1674,1
1675,0
1676,1
1677,0
1678,1
1679,0
1680,0
1681,0
1682,1
1683,0
1684,0
1685,0
1686,0
1687,0
1688,1
1689,0
1690,0
1691,1
1692,0
1693,1
1694,0
1695,0
1696,0
1697,0
1698,0
1699,1
1700,0
1701,0
1702,0
1703,0
1704,1
1705,0
1706,1
1707,0
1708,0
1709,0
1710,0
1711,0
1712,0
1713,0
1714,1
1715,0
1716,0
1717,1
1718,1
1719,1
1720,0
1721,1
1722,0
1723,1
1724,0
1725,1
1726,1
1727,0
1728,1
1729,1
1730,1
1731,0
1732,1
1733,0
1734,1
1735,0
1736,0
1737,0
1738,0
1739,1
1740,0
1741,1
1742,0
1743,0
1744,1
1745,0
1746,0
1747,0
1748,0
1749,0
1750,1
1751,0
1752,0
1753,0
1754,0
1755,0
1756,0
1757,0
1758,1
1759,0
1760,0
1761,1
1762,1
1763,1
1764,0
1765,1
1766,0
1767,0
1768,0
1769,1
1770,0
1771,0
1772,0
1773,0
1774,1
1775,0
1776,0
1777,0
1778,0
1779,1
1780,0
1781,0
1782,1
1783,1
1784,1
1785,0
1786,0
1787,0
1788,0
1789,0
1790,1
1791,1
1792,0
1793,0
1794,0
1795,0
1796,1
1797,0
1798,0
1799,1
1800,0
1801,0
1802,0
1803,0
1804,1
1805,0
1806,0
1807,0
1808,0
1809,1
1810,0
1811,1
1812,0
1813,1
1814,0
1815,0
1816,0
1817,0
1818,0
1819,1
1820,1
1821,1
1822,0
1823,1
1824,0
1825,1
1826,0
1827,0
1828,0
1829,1
1830,0
1831,0
1832,1
1833,1
1834,1
1835,0
1836,0
1837,1
1838,0
1839,0
1840,1
1841,1
1842,0
1843,0
1844,1
1845,0
1846,1
1847,1
1848,0
1849,0
1850,0
1851,1
1852,0
1853,1
1854,1
1855,0
1856,0
1857,1
1858,1
1859,1
1860,0
1861,0
1862,1
1863,1
1864,1
1865,1
1866,1
1867,0
1868,0
1869,0
1870,0
1871,1
1872,0
1873,1
1874,1
1875,0
1876,1
1877,1
1878,1
1879,0
1880,1
1881,1
1882,0
1883,1
1884,0
1885,1
1886,0
1887,0
1888,1
1889,1
1890,0
1891,0
1892,0
1893,1
1894,0
1895,0
1896,0
1897,1
1898,0
1899,1
1900,0
1901,0
1902,0
1903,0
1904,0
1905,0
1906,0
1907,0
1908,1
1909,0
1910,0
1911,0
1912,0
1913,0
1914,1
1915,0
1916,1
1917,0
1918,0
1919,1
1920,1
1921,1
1922,0
1923,0
1924,0
1925,1
1926,0
1927,0
1928,0
1929,0
1930,0
1931,1
1932,0
1933,0
1934,0
1935,1
1936,0
1937,1
1938,1
1939,0
1940,0
1941,0
1942,0
1943,1
1944,1
1945,1
1946,0
1947,0
1948,0
1949,0
1950,0
1951,0
1952,0
1953,0
1954,1
1955,1
1956,0
1957,1
1958,1
1959,0
1960,0
1961,0
1962,0
1963,1
1964,0
1965,0
1966,0
1967,0
1968,0
1969,0
1970,0
1971,0
1972,1
1973,0
1974,0
1975,0
1976,0
1977,0
1978,0
1979,1
1980,0
1981,0
1982,1
1983,0
1984,0
1985,0
1986,0
1987,0
1988,0
1989,0
1990,0
1991,0
1992,0
1993,1
1994,1
1995,1
1996,0
1997,0
1998,0
1999,0
2000,1
2001,1
2002,0
2003,0
2004,0
2005,1
2006,1
2007,0
2008,0
2009,0
2010,1
2011,0
2012,0
2013,0
2014,0
2015,1
2016,0
2017,0
2018,1
2019,0
2020,1
2021,0
2022,0
2023,1
2024,0
2025,0
2026,0
2027,0
2028,1
2029,1
2030,0
2031,0
2032,0
2033,0
2034,0
2035,0
2036,1
2037,0
2038,0
2039,0
2040,0
2041,0
2042,0
2043,1
2044,0
2045,0
2046,0
2047,1
2048,1
2049,1
2050,0
2051,0
2052,0
2053,1
2054,1
2055,0
2056,0
2057,1
2058,0
2059,0
2060,1
2061,1
2062,1
2063,1
2064,0
2065,0
2066,0
2067,1
2068,1
2069,0
2070,1
2071,1
2072,0
2073,1
2074,0
2075,0
2076,1
2077,0
2078,1
2079,0
2080,0
2081,0
2082,0
2083,0
2084,1
2085,0
2086,0
2087,0
2088,0
2089,0
2090,0
2091,1
2092,0
2093,0
2094,0
2095,0
2096,0
2097,1
2098,0
2099,1
2100,0
2101,0
2102,0
2103,1
2104,0
2105,0
2106,0
2107,1
2108,0
2109,1
2110,0
2111,0
2112,0
2113,1
2114,0
2115,0
2116,0
2117,1
2118,0
2119,1
2120,1
2121,0
2122,0
2123,0
2124,1
2125,1
2126,0
2127,1
2128,1
2129,1
2130,0
2131,1
2132,0
2133,1
2134,1
2135,1
2136,1
2137,1
2138,1
2139,0
2140,0
2141,0
2142,0
2143,1
2144,0
2145,0
2146,0
2147,0
2148,1
2149,0
2150,0
2151,0
2152,1
2153,0
2154,1
2155,0
2156,1
2157,0
2158,1
2159,0
2160,1
2161,0
2162,0
2163,0
2164,1
2165,0
2166,1
2167,0
2168,1
2169,1
2170,1
2171,0
2172,0
2173,0
2174,0
2175,0
2176,1
2177,0
2178,1
2179,1
2180,1
2181,1
2182,1
2183,0
2184,0
2185,0
2186,0
2187,0
2188,1
2189,0
2190,1
2191,0
2192,1
2193,0
2194,0
2195,0
2196,0
2197,0
2198,0
2199,0
2200,0
2201,1
2202,0
2203,1
2204,0
2205,0
2206,1
2207,0
2208,0
2209,1
2210,0
2211,0
2212,0
2213,1
2214,0
2215,0
2216,0
2217,0
2218,0
2219,1
2220,1
2221,0
2222,0
2223,0
2224,0
2225,0
2226,0
2227,0
2228,0
2229,0
2230,0
2231,1
2232,1
2233,0
2234,0
2235,1
2236,0
2237,1
2238,0
2239,0
2240,0
2241,0
2242,0
2243,0
2244,0
2245,1
2246,0
2247,1
2248,0
2249,0
2250,1
2251,0
2252,0
2253,0
2254,0
2255,0
2256,0
2257,1
2258,0
2259,0
2260,0
2261,0
2262,1
2263,1
2264,1
2265,0
2266,0
2267,0
2268,0
2269,0
2270,1
2271,0
2272,0
2273,0
2274,0
2275,1
2276,1
2277,0
2278,0
2279,0
2280,0
2281,0
2282,0
2283,0
2284,1
2285,1
2286,1
2287,0
2288,0
2289,0
2290,0
2291,0
2292,0
2293,0
2294,0
2295,1
2296,0
2297,0
2298,0
2299,0
2300,1
2301,0
2302,0
2303,1
2304,0
2305,0
2306,0
2307,0
2308,1
2309,1
2310,1
2311,0
2312,0
2313,0
2314,1
2315,0
2316,0
2317,0
2318,0
2319,1
2320,0
2321,1
2322,1
2323,0
2324,0
2325,0
2326,0
2327,1
2328,1
2329,0
2330,1
2331,1
2332,0
2333,0
2334,0
2335,1
2336,1
2337,0
2338,0
2339,1
2340,0
2341,0
2342,1
2343,1
2344,0
2345,0
2346,1
2347,0
2348,0
2349,0
2350,1
2351,0
2352,1
2353,1
2354,1
2355,1
2356,0
2357,0
2358,0
2359,1
2360,0
2361,0
2362,0
2363,0
2364,0
2365,0
2366,0
2367,0
2368,0
2369,1
2370,0
2371,1
2372,1
2373,0
2374,0
2375,1
2376,0
2377,0
2378,1
2379,1
2380,1
2381,0
2382,0
2383,0
2384,0
2385,0
2386,1
2387,1
2388,0
2389,0
2390,0
2391,0
2392,0
2393,0
2394,1
2395,0
2396,0
2397,0
2398,0
2399,0
2400,0
2401,0
2402,0
2403,0
2404,1
2405,0
2406,1
2407,0
2408,0
2409,0
2410,0
2411,1
2412,1
2413,0
2414,0
2415,0
2416,1
2417,1
2418,0
2419,0
2420,1
2421,0
2422,1
2423,0
2424,1
2425,1
2426,0
2427,0
2428,1
2429,0
2430,0
2431,0
2432,0
2433,0
2434,0
2435,0
2436,0
2437,0
2438,0
2439,0
2440,0
2441,0
2442,0
2443,1
2444,0
2445,0
2446,0
2447,1
2448,0
2449,1
2450,0
2451,0
2452,0
2453,0
2454,0
2455,0
2456,0
2457,0
2458,1
2459,0
2460,1
2461,0
2462,0
2463,1
2464,0
2465,1
2466,0
2467,0
2468,1
2469,0
2470,1
2471,1
2472,1
2473,0
2474,0
2475,1
2476,0
2477,1
2478,0
2479,0
2480,0
2481,0
2482,1
2483,0
2484,0
2485,1
2486,0
2487,0
2488,0
2489,0
2490,0
2491,0
2492,1
2493,0
2494,1
2495,0
2496,0
2497,1
2498,0
2499,1
